<svg xmlns="http://www.w3.org/2000/svg" viewBox="0 0 120 120.103">
  <defs>
    <style>
      .cls-1 {
        fill: #ccf2fe;
      }

      .cls-2 {
        fill: #b3ecfd;
      }

      .cls-3, .cls-6 {
        fill: #34cdfa;
      }

      .cls-4 {
        fill: none;
      }

      .cls-5, .cls-6 {
        stroke: none;
      }
    </style>
  </defs>
  <g id="moon_-_v3" data-name="moon - v3" transform="translate(-21.711 -7.375)">
    <path id="Path_1875" data-name="Path 1875" class="cls-1" d="M99.684,8.6c-2.547-1.018-5.6.509-6.622,3.564a3.984,3.984,0,0,0,.509,4.073A50.862,50.862,0,0,1,74.213,85.469a50.085,50.085,0,0,1-41.772,3.564c-2.547-1.018-5.6.509-6.622,3.564a3.984,3.984,0,0,0,.509,4.073c16.3,29.527,54,39.709,83.035,23.418S149.1,66.124,132.8,37.106A57.042,57.042,0,0,0,99.684,8.6Z" transform="translate(0.764 -0.35)"/>
    <path id="Path_1876" data-name="Path 1876" class="cls-2" d="M81.842,285.332a60.516,60.516,0,0,1-50.942-28c-2.547,1.527-3.566,4.582-2.038,6.618h0c16.811,29.527,54,39.709,83.035,23.418a60.366,60.366,0,0,0,31.074-52.945v-5.091C139.916,260.9,113.936,285.332,81.842,285.332Z" transform="translate(-1.262 -168.65)"/>
    <path id="Path_1877" data-name="Path 1877" class="cls-3" d="M25.189,167.624a19.012,19.012,0,0,0-11.331,13.849c0,.839-1.259.839-1.679,0A19.012,19.012,0,0,0,.848,167.624a.874.874,0,0,1,0-1.679A19.012,19.012,0,0,0,12.179,152.1c0-.839,1.259-.839,1.679,0a19.012,19.012,0,0,0,11.331,13.849A.874.874,0,0,1,25.189,167.624Z" transform="translate(21.492 -144.092)"/>
    <g id="Path_1894" data-name="Path 1894" class="cls-4" transform="translate(-91 37.679)">
      <path class="cls-5" d="M165.6,12.806a15.471,15.471,0,0,0-9.22,11.269c0,.683-1.025.683-1.366,0a15.471,15.471,0,0,0-9.22-11.269.512.512,0,1,1,0-1.024A15.471,15.471,0,0,0,155.018.512c0-.683,1.024-.683,1.366,0a15.471,15.471,0,0,0,9.22,11.269A.512.512,0,1,1,165.6,12.806Z"/>
      <path class="cls-6" d="M 155.8285369873047 24.58769607543945 C 155.5297393798828 24.58769607543945 155.1882476806641 24.41693305969238 155.0175476074219 24.07540512084961 C 153.9930267333984 18.95293235778809 150.578125 14.85495090484619 145.7970886230469 12.80595111846924 C 145.1140289306641 12.80595111846924 145.1140289306641 11.78145980834961 145.7970886230469 11.78145980834961 C 150.578125 9.732478141784668 153.9930267333984 5.634496212005615 155.0175476074219 0.5120236277580261 C 155.0175476074219 0.1704963445663452 155.2736663818359 -0.0002672948758117855 155.5724487304688 -0.0002672948758117855 C 155.8712463378906 -0.0002672948758117855 156.2127227783203 0.1704963445663452 156.3834686279297 0.5120236277580261 C 157.4079742431641 5.634496212005615 160.8229370117188 9.732478141784668 165.6038818359375 11.78145980834961 C 166.2869873046875 11.78145980834961 166.2869873046875 12.80595111846924 165.6038818359375 12.80595111846924 C 160.8229370117188 14.85495090484619 157.4079742431641 18.95293235778809 156.3834686279297 24.07540512084961 C 156.3834686279297 24.41693305969238 156.1273345947266 24.58769607543945 155.8285369873047 24.58769607543945 Z"/>
    </g>
  </g>
</svg>
